8.Simulation/simulation log.txt
20-05-08 01:50:15 EDT] vlib work && vlog -writetoplevels questa.tops '-timescale' '1ns/1ns' design.sv testbench.sv  && vsim -f questa.tops -batch -do "vsim -voptargs=+acc=npr; run -all; exit" -voptargs=+acc=npr 
QuestaSim-64 vlog 2020.1_1 Compiler 2020.03 Mar  4 2020
Start time: 01:50:15 on May 08,2020
vlog -writetoplevels questa.tops -timescale 1ns/1ns design.sv testbench.sv 
-- Compiling module input_calc
-- Compiling module calc_fsm
-- Compiling module clock_divider
-- Compiling module segment_display
-- Compiling module switch_calc
-- Compiling module switch_cal_tb

Top level modules:
	switch_cal_tb
End time: 01:50:15 on May 08,2020, Elapsed time: 0:00:00
Errors: 0, Warnings: 0
# vsim switch_cal_tb -batch -do "vsim -voptargs=+acc=npr; run -all; exit" -voptargs="+acc=npr" 
# Start time: 01:50:15 on May 08,2020
# ** Note: (vsim-3812) Design is being optimized...
# //  Questa Sim-64
# //  Version 2020.1_1 linux_x86_64 Mar  4 2020
# //
# //  Copyright 1991-2020 Mentor Graphics Corporation
# //  All Rights Reserved.
# //
# //  QuestaSim and its associated documentation contain trade
# //  secrets and commercial or financial information that are the property of
# //  Mentor Graphics Corporation and are privileged, confidential,
# //  and exempt from disclosure under the Freedom of Information Act,
# //  5 U.S.C. Section 552. Furthermore, this information
# //  is prohibited from disclosure under the Trade Secrets Act,
# //  18 U.S.C. Section 1905.
# //
# Loading sv_std.std
# Loading work.switch_cal_tb(fast)
# Loading work.switch_calc(fast)
# Loading work.input_calc(fast)
# Loading work.calc_fsm(fast)
# Loading work.segment_display(fast)
# Loading work.clock_divider(fast)
# 
# vsim -voptargs=+acc=npr
# run -all
#  0 110  0   0
#  2 110  2   0
#  4 110  4   0
#  6 110  6   0
#  8 110  8   0
# 10 110 10   2
# 12 110 12   2
# 14 110 14   2
#  0 110  0   2
#  2 110  2   2
#  2 110  2   0
#  4 110  4   0
#  4 110  4   4
#  6 110  6   4
#  6 110  6  24
#  8 110  8  24
# 10 110 10  24
# 12 110 12  24
# 14 110 14  24
#  0 110  0  24
#  2 110  2  24
#  4 110  4  24
#  4 110  4   0
#  6 110  6   0
#  6 110  6   6
#  8 110  8   6
#  8 110  8 208
# 10 110 10 208
# 12 110 12 208
# 14 110 14 208
#  0 110  0 208
#  2 110  2 208
#  4 110  4 208
#  6 110  6 208
#  6 110  6   0
#  8 110  8   0
#  8 110  8   8
# 10 110 10   8
# 10 110 10 128
# 12 110 12 128
# 14 110 14 128
#  0 110  0 128
#  2 110  2 128
#  4 110  4 128
#  6 110  6 128
#  8 110  8 128
#  8 110  8   0
# 10 110 10   0
# 10 110 10  10
# 12 110 12  10
# 12 110 12   0
# 14 110 14   0
#  0 110  0   0
#  2 110  2   0
#  4 110  4   0
#  6 110  6   0
#  8 110  8   0
# 10 110 10   0
# 12 110 12   0
# 12 110 12  12
# 14 110 14  12
# 14 110 14   0
#  0 110  0   0
#  2 110  2   0
#  4 110  4   0
#  6 110  6   0
#  8 110  8   0
# 10 110 10   0
# 12 110 12   0
# 14 110 14  12
#  0 110  0  12
#  0 110  0   0
#  2 110  2   0
#  4 110  4   0
#  6 110  6   0
#  8 110  8   0
# 10 110 10   0
# 12 110 12   0
# 14 110 14   0
# 14 110 14  14
#  0 110  0  14
#  2 110  2   0
#  4 110  4   0
#  6 110  6   0
#  8 110  8   0
# 10 110 10   0
# 12 110 12   0
# 14 110 14   0
#  0 110  0   0
#  2 110  2   0
#  2 110  2   1
#  4 110  4   1
#  6 110  6   1
#  8 110  8   1
# 10 110 10   1
# 12 110 12   1
# 14 110 14   1
#  0 110  0   1
#  0 110  0   0
#  2 110  2   0
#  2 110  2   2
#  4 110  4   2
#  6 110  6   2
#  8 110  8   2
# 10 110 10   2
# 12 110 12   2
# 14 110 14   2
#  0 110  0   2
#  2 110  2   2
#  2 110  2   0
#  4 110  4   0
#  4 110  4   4
#  6 110  6   4
#  6 110  6  24
#  8 110  8  24
# 10 110 10  24
# 12 110 12  24
# 14 110 14  24
#  0 110  0  24
#  2 110  2  24
#  4 110  4  24
#  4 110  4   0
#  6 110  6   0
#  6 110  6   6
#  8 110  8   6
#  8 110  8 208
# 10 110 10 208
# 12 110 12 208
# 14 110 14 208
#  0 110  0 208
#  2 110  2 208
#  4 110  4 208
#  6 110  6 208
#  6 110  6   0
#  8 110  8   0
#  8 110  8   8
# 10 110 10   8
# 10 110 10 128
# 12 110 12 128
# 14 110 14 128
#  0 110  0 128
#  2 110  2 128
#  4 110  4 128
#  6 110  6 128
#  8 110  8 128
#  8 110  8   0
# 10 110 10   0
# 10 110 10  10
# 12 110 12  10
# 12 110 12   0
# 14 110 14   0
#  0 110  0   0
#  2 110  2   0
#  4 110  4   0
#  6 110  6   0
#  8 110  8   0
# 10 110 10   0
# 12 110 12   0
# 12 110 12  12
# 14 110 14  12
# 14 110 14   0
#  0 110  0   0
#  2 110  2   0
#  4 110  4   0
#  6 110  6   0
#  8 110  8   0
# 10 110 10   0
# 12 110 12   0
# 14 110 14  12
#  0 110  0  12
#  0 110  0   0
#  2 110  2   0
#  4 110  4   0
#  6 110  6   0
#  8 110  8   0
# 10 110 10   0
# 12 110 12   0
# 14 110 14   0
# 14 110 14  14
#  0 110  0  14
#  2 110  2   0
#  4 110  4   0
#  6 110  6   0
#  8 110  8   0
# 10 110 10   0
# 12 110 12   0
# 14 110 14   0
#  0 110  0   0
#  2 110  2   0
#  2 110  2   1
#  4 110  4   1
#  6 110  6   1
#  8 110  8   1
# 10 110 10   1
# 12 110 12   1
# 14 110 14   1
#  0 110  0   1
#  0 110  0   0
#  2 110  2   0
#  2 110  2   2
#  4 110  4   2
#  6 110  6   2
#  8 110  8   2
# 10 110 10   2
# 12 110 12   2
# 14 110 14   2
#  0 110  0   2
#  2 110  2   2
#  2 110  2   0
#  4 110  4   0
#  4 110  4   4
#  6 110  6   4
#  6 110  6  24
#  8 110  8  24
# 10 110 10  24
# 12 110 12  24
# 14 110 14  24
#  0 110  0  24
#  2 110  2  24
#  4 110  4  24
#  4 110  4   0
#  6 110  6   0
#  6 110  6   6
#  8 110  8   6
#  8 110  8 208
# 10 110 10 208
# 12 110 12 208
# 14 110 14 208
#  0 110  0 208
#  2 110  2 208
#  4 110  4 208
#  6 110  6 208
#  6 110  6   0
#  8 110  8   0
#  8 110  8   8
# 10 110 10   8
# 10 110 10 128
# 12 110 12 128
# 14 110 14 128
#  0 110  0 128
#  2 110  2 128
#  4 110  4 128
#  6 110  6 128
#  8 110  8 128
#  8 110  8   0
# 10 110 10   0
# 10 110 10  10
# 12 110 12  10
# 12 110 12   0
# 14 110 14   0
#  0 110  0   0
#  2 110  2   0
#  4 110  4   0
#  6 110  6   0
#  8 110  8   0
# 10 110 10   0
# 12 110 12   0
# 12 110 12  12
# 14 110 14  12
# 14 110 14   0
#  0 110  0   0
#  2 110  2   0
#  4 110  4   0
#  6 110  6   0
#  8 110  8   0
# 10 110 10   0
# 12 110 12   0
# 14 110 14  12
#  0 110  0  12
#  0 110  0   0
#  2 110  2   0
#  4 110  4   0
#  6 110  6   0
#  8 110  8   0
# 10 110 10   0
# 12 110 12   0
# 14 110 14   0
# 14 110 14  14
#  0 110  0  14
#  2 110  2   0
#  4 110  4   0
#  6 110  6   0
#  8 110  8   0
# 10 110 10   0
# 12 110 12   0
# 14 110 14   0
#  0 110  0   0
#  2 110  2   0
#  2 110  2   1
#  4 110  4   1
#  6 110  6   1
#  8 110  8   1
# 10 110 10   1
# 12 110 12   1
# 14 110 14   1
#  0 110  0   1
#  0 110  0   0
#  2 110  2   0
#  2 110  2   2
#  4 110  4   2
#  6 110  6   2
#  8 110  8   2
# 10 110 10   2
# 12 110 12   2
# 14 110 14   2
#  0 110  0   2
#  2 110  2   2
#  2 110  2   0
#  4 110  4   0
#  4 110  4   4
#  6 110  6   4
#  6 110  6  24
#  8 110  8  24
# 10 110 10  24
# 12 110 12  24
# 14 110 14  24
#  0 110  0  24
#  2 110  2  24
#  4 110  4  24
#  4 110  4   0
#  6 110  6   0
#  6 110  6   6
#  8 110  8   6
#  8 110  8 208
# 10 110 10 208
# 12 110 12 208
# 14 110 14 208
#  0 110  0 208
#  2 110  2 208
#  4 110  4 208
#  6 110  6 208
#  6 110  6   0
#  8 110  8   0
#  8 110  8   8
# 10 110 10   8
# 10 110 10 128
# 12 110 12 128
# 14 110 14 128
#  0 110  0 128
#  2 110  2 128
#  4 110  4 128
#  6 110  6 128
#  8 110  8 128
#  8 110  8   0
# 10 110 10   0
# 10 110 10  10
# 12 110 12  10
# 12 110 12   0
# 14 110 14   0
#  0 110  0   0
#  2 110  2   0
#  4 110  4   0
#  6 110  6   0
#  8 110  8   0
# 10 110 10   0
# 12 110 12   0
# 12 110 12  12
# 14 110 14  12
# 14 110 14   0
#  0 110  0   0
#  2 110  2   0
#  4 110  4   0
#  6 110  6   0
#  8 110  8   0
# 10 110 10   0
# 12 110 12   0
# 14 110 14  12
#  0 110  0  12
#  0 110  0   0
#  2 110  2   0
#  4 110  4   0
#  6 110  6   0
#  8 110  8   0
# 10 110 10   0
# 12 110 12   0
# 14 110 14   0
# 14 110 14  14
#  0 110  0  14
#  2 110  2   0
#  4 110  4   0
#  6 110  6   0
#  8 110  8   0
# 10 110 10   0
# 12 110 12   0
# 14 110 14   0
#  0 110  0   0
#  2 110  2   0
#  2 110  2   1
#  4 110  4   1
#  6 110  6   1
#  8 110  8   1
# 10 110 10   1
# 12 110 12   1
# 14 110 14   1
#  0 110  0   1
#  0 110  0   0
#  2 110  2   0
#  2 110  2   2
#  4 110  4   2
#  6 110  6   2
#  8 110  8   2
# 10 110 10   2
# 12 110 12   2
# 14 110 14   2
#  0 110  0   2
#  2 110  2   2
#  2 110  2   0
#  4 110  4   0
#  4 110  4   4
#  6 110  6   4
#  6 110  6  24
#  8 110  8  24
# 10 110 10  24
# 12 110 12  24
# 14 110 14  24
#  0 110  0  24
#  2 110  2  24
#  4 110  4  24
#  4 110  4   0
#  6 110  6   0
#  6 110  6   6
#  8 110  8   6
#  8 110  8 208
# 10 110 10 208
# 12 110 12 208
# 14 110 14 208
#  0 110  0 208
#  2 110  2 208
#  4 110  4 208
#  6 110  6 208
#  6 110  6   0
#  8 110  8   0
#  8 110  8   8
# 10 110 10   8
# 10 110 10 128
# 12 110 12 128
# 14 110 14 128
#  0 110  0 128
#  2 110  2 128
#  4 110  4 128
#  6 110  6 128
#  8 110  8 128
#  8 110  8   0
# 10 110 10   0
# 10 110 10  10
# 12 110 12  10
# 12 110 12   0
# 14 110 14   0
#  0 110  0   0
#  2 110  2   0
#  4 110  4   0
#  6 110  6   0
#  8 110  8   0
# 10 110 10   0
# 12 110 12   0
# 12 110 12  12
# 14 110 14  12
# 14 110 14   0
#  0 110  0   0
#  2 110  2   0
#  4 110  4   0
#  6 110  6   0
#  8 110  8   0
# 10 110 10   0
# 12 110 12   0
# 14 110 14  12
#  0 110  0  12
#  0 110  0   0
#  2 110  2   0
#  4 110  4   0
#  6 110  6   0
#  8 110  8   0
# 10 110 10   0
# 12 110 12   0
# 14 110 14   0
# 14 110 14  14
#  0 110  0  14
#  2 110  2   0
#  4 110  4   0
#  6 110  6   0
#  8 110  8   0
# 10 110 10   0
# 12 110 12   0
# 14 110 14   0
#  0 110  0   0
#  2 110  2   0
#  2 110  2   1
#  4 110  4   1
#  6 110  6   1
#  8 110  8   1
# 10 110 10   1
# 12 110 12   1
# 14 110 14   1
#  0 110  0   1
#  0 110  0   0
#  2 110  2   0
#  2 110  2   2
#  4 110  4   2
#  6 110  6   2
#  8 110  8   2
# 10 110 10   2
# 12 110 12   2
# 14 110 14   2
#  0 110  0   2
#  2 110  2   2
#  2 110  2   0
#  4 110  4   0
#  4 110  4   4
#  6 110  6   4
#  6 110  6  24
#  8 110  8  24
# 10 110 10  24
# 12 110 12  24
# 14 110 14  24
#  0 110  0  24
#  2 110  2  24
#  4 110  4  24
#  4 110  4   0
#  6 110  6   0
#  6 110  6   6
#  8 110  8   6
#  8 110  8 208
# 10 110 10 208
# 12 110 12 208
# 14 110 14 208
#  0 110  0 208
#  2 110  2 208
#  4 110  4 208
#  6 110  6 208
#  6 110  6   0
#  8 110  8   0
#  8 110  8   8
# 10 110 10   8
# 10 110 10 128
# 12 110 12 128
# 14 110 14 128
#  0 110  0 128
#  2 110  2 128
#  4 110  4 128
#  6 110  6 128
#  8 110  8 128
#  8 110  8   0
# 10 110 10   0
# 10 110 10  10
# 12 110 12  10
# 12 110 12   0
# 14 110 14   0
#  0 110  0   0
#  2 110  2   0
#  4 110  4   0
#  6 110  6   0
#  8 110  8   0
# 10 110 10   0
# 12 110 12   0
# 12 110 12  12
# 14 110 14  12
# 14 110 14   0
#  0 110  0   0
#  2 110  2   0
#  4 110  4   0
#  6 110  6   0
#  8 110  8   0
# 10 110 10   0
# 12 110 12   0
# 14 110 14  12
#  0 110  0  12
#  0 110  0   0
#  2 110  2   0
#  4 110  4   0
#  6 110  6   0
#  8 110  8   0
# 10 110 10   0
# 12 110 12   0
# 14 110 14   0
# 14 110 14  14
#  0 110  0  14
#  2 110  2   0
#  4 110  4   0
#  6 110  6   0
#  8 110  8   0
# 10 110 10   0
# 12 110 12   0
# 14 110 14   0
#  0 110  0   0
#  2 110  2   0
#  2 110  2   1
#  4 110  4   1
#  6 110  6   1
#  8 110  8   1
# 10 110 10   1
# 12 110 12   1
# 14 110 14   1
#  0 110  0   1
#  0 110  0   0
#  2 110  2   0
#  2 110  2   2
#  4 110  4   2
#  6 110  6   2
#  8 110  8   2
# 10 110 10   2
# 12 110 12   2
# 14 110 14   2
#  0 110  0   2
#  2 110  2   2
#  2 110  2   0
#  4 110  4   0
#  4 110  4   4
#  6 110  6   4
#  6 110  6  24
#  8 110  8  24
# 10 110 10  24
# 12 110 12  24
# 14 110 14  24
#  0 110  0  24
#  2 110  2  24
#  4 110  4  24
#  4 110  4   0
#  6 110  6   0
#  6 110  6   6
#  8 110  8   6
#  8 110  8 208
# 10 110 10 208
# 12 110 12 208
# 14 110 14 208
#  0 110  0 208
#  2 110  2 208
#  4 110  4 208
#  6 110  6 208
#  6 110  6   0
#  8 110  8   0
#  8 110  8   8
# 10 110 10   8
# 10 110 10 128
# 12 110 12 128
# 14 110 14 128
#  0 110  0 128
#  2 110  2 128
#  4 110  4 128
#  6 110  6 128
#  8 110  8 128
#  8 110  8   0
# 10 110 10   0
# 10 110 10  10
# 12 110 12  10
# 12 110 12   0
# 14 110 14   0
#  0 110  0   0
#  2 110  2   0
#  4 110  4   0
#  6 110  6   0
#  8 110  8   0
# 10 110 10   0
# 12 110 12   0
# 12 110 12  12
# 14 110 14  12
# 14 110 14   0
#  0 110  0   0
#  2 110  2   0
#  4 110  4   0
#  6 110  6   0
#  8 110  8   0
# 10 110 10   0
# 12 110 12   0
# 14 110 14  12
#  0 110  0  12
#  0 110  0   0
#  2 110  2   0
#  4 110  4   0
#  6 110  6   0
#  8 110  8   0
# 10 110 10   0
# 12 110 12   0
# 14 110 14   0
# 14 110 14  14
#  0 110  0  14
#  2 110  2   0
#  4 110  4   0
#  6 110  6   0
#  8 110  8   0
# 10 110 10   0
# 12 110 12   0
# 14 110 14   0
#  0 110  0   0
#  2 110  2   0
#  2 110  2   1
#  4 110  4   1
#  6 110  6   1
# ** Note: $finish    : testbench.sv(57)
#    Time: 5 us  Iteration: 0  Instance: /switch_cal_tb
# End time: 01:50:16 on May 08,2020, Elapsed time: 0:00:01
# Errors: 0, Warnings: 0
Finding VCD file...
./Test.vcd